Working with cohorts
…
In this case we can see that cohorts 1 and 5 were dropped completely
and some patients were dropped from cohorts 2, 3, and 4.

Let’s confirm that everyone in cohorts 1 and 5 were in the cohort for
less than 28 days.

days_in_cohort <- cdm$cohort %>% 
  filter(cohort_definition_id %in% c(1,5)) %>% 
  mutate(days_in_cohort = !!datediff("cohort_start_date", "cohort_end_date")) %>% 
  count(cohort_definition_id, days_in_cohort) %>% 
  collect()

days_in_cohort
#> # A tibble: 465 × 3
#>    cohort_definition_id days_in_cohort     n
#>                   <int>          <dbl> <dbl>
#>  1                    1           8746     1
#>  2                    1           1102     1
#>  3                    1           6572     1
#>  4                    1          13277     1
#>  5                    1           8643     1
#>  6                    1           4240     1
#>  7                    1           7647     1
#>  8                    1           7831     1
#>  9                    1          11563     2
#> 10                    1          13911     1
#> # ℹ 455 more rows
…
